\relax 
\@writefile{toc}{\contentsline {section}{\numberline {I}Introduction}{1}}
\@writefile{toc}{\contentsline {section}{\numberline {II}Methods and Theory}{1}}
\@writefile{toc}{\contentsline {subsection}{\numberline {\unhbox \voidb@x \hbox {II-A}}Logistic Regression}{1}}
\@writefile{toc}{\contentsline {subsection}{\numberline {\unhbox \voidb@x \hbox {II-B}}Linear Classification}{1}}
\@writefile{toc}{\contentsline {subsection}{\numberline {\unhbox \voidb@x \hbox {II-C}}Gradient descent}{1}}
\@writefile{loa}{\contentsline {algorithm}{\numberline {1}{\ignorespaces  Framework of logistic regression and linear classification.}}{2}}
\newlabel{alg:Logistic Regression}{{1}{2}}
\@writefile{toc}{\contentsline {section}{\numberline {III}Experiments}{2}}
\@writefile{toc}{\contentsline {subsection}{\numberline {\unhbox \voidb@x \hbox {III-A}}Dataset}{2}}
\@writefile{toc}{\contentsline {subsection}{\numberline {\unhbox \voidb@x \hbox {III-B}}Implementation}{2}}
\@writefile{lof}{\contentsline {figure}{\numberline {1}{\ignorespaces Validation loss with SGD to optimize the logistic regression loss function with different learning rate.}}{3}}
\newlabel{fig:loss_with_SGD_logistic regression}{{1}{3}}
\@writefile{lof}{\contentsline {figure}{\numberline {2}{\ignorespaces Validation loss with NAG to optimize the logistic regression loss function with different learning rate.}}{3}}
\newlabel{fig:loss_with_NAG_logistic regression}{{2}{3}}
\@writefile{lof}{\contentsline {figure}{\numberline {3}{\ignorespaces Validation loss with Adadelta to optimize the logistic regression loss function with different learning rate.}}{3}}
\newlabel{fig:loss_with_Adadelta_logistic regression}{{3}{3}}
\@writefile{lof}{\contentsline {figure}{\numberline {4}{\ignorespaces Validation loss with RmsProp to optimize the logistic regression loss function with different learning rate.}}{3}}
\newlabel{fig:loss_with_RmsProp_logistic regression}{{4}{3}}
\@writefile{lof}{\contentsline {figure}{\numberline {5}{\ignorespaces Validation loss with Adam to optimize the logistic regression loss function with different learning rate.}}{3}}
\newlabel{fig:loss_with_Adam_logistic regression}{{5}{3}}
\@writefile{lof}{\contentsline {figure}{\numberline {6}{\ignorespaces Validation loss with different optimization algorithms to optimize the logistic regression loss function.}}{4}}
\newlabel{fig:loss_logistic regression}{{6}{4}}
\@writefile{lof}{\contentsline {figure}{\numberline {7}{\ignorespaces Validation loss with SGD to optimize the linear classification loss function with different learning rate.}}{4}}
\newlabel{fig:loss_with_SGD_linear_classification}{{7}{4}}
\@writefile{lof}{\contentsline {figure}{\numberline {8}{\ignorespaces Validation loss with NAG to optimize the linear classification loss function with different learning rate.}}{4}}
\newlabel{fig:loss_with_NAG_linear_classification}{{8}{4}}
\@writefile{lof}{\contentsline {figure}{\numberline {9}{\ignorespaces Validation loss with Adadelta to optimize the linear classification loss function with different learning rate.}}{4}}
\newlabel{fig:loss_with_Adadelta_linear_classification}{{9}{4}}
\@writefile{lof}{\contentsline {figure}{\numberline {10}{\ignorespaces Validation loss with RmsProp to optimize the linear classification loss function with different learning rate.}}{4}}
\newlabel{fig:loss_with_RmsProp_linear_classification}{{10}{4}}
\@writefile{lof}{\contentsline {figure}{\numberline {11}{\ignorespaces Validation loss with Adam to optimize the linear classification loss function with different learning rate.}}{4}}
\newlabel{fig:loss_with_Adam_linear_classification}{{11}{4}}
\@writefile{lof}{\contentsline {figure}{\numberline {12}{\ignorespaces Validation loss with different optimization algorithms to optimize the linear classification loss function with different learning rate.}}{5}}
\newlabel{fig:loss_linear_classification}{{12}{5}}
\@writefile{toc}{\contentsline {section}{\numberline {IV}Conclusion}{5}}
